module gitlab.com/yassu/go-nr

go 1.13

require (
	github.com/cosiner/argv v0.0.1 // indirect
	github.com/go-delve/delve v1.4.0 // indirect
	github.com/konsorten/go-windows-terminal-sequences v1.0.2 // indirect
	github.com/mattn/go-colorable v0.1.6 // indirect
	github.com/mattn/go-runewidth v0.0.8 // indirect
	github.com/peterh/liner v1.2.0 // indirect
	github.com/sirupsen/logrus v1.4.2 // indirect
	github.com/spf13/cobra v0.0.6 // indirect
	github.com/spf13/pflag v1.0.5 // indirect
	go.starlark.net v0.0.0-20200306205701-8dd3e2ee1dd5 // indirect
	golang.org/x/arch v0.0.0-20191126211547-368ea8f32fff // indirect
	golang.org/x/crypto v0.0.0-20200302210943-78000ba7a073 // indirect
	golang.org/x/sys v0.0.0-20200302150141-5c8b2ff67527 // indirect
	golang.org/x/tools v0.0.0-20200312045724-11d5b4c81c7d // indirect
	gopkg.in/yaml.v2 v2.2.8 // indirect
)
